{
    "name": "SlayerActions",
    "maps": [
        {
            "name": "SlayerControls",
            "id": "19063958-b57e-4a52-bde9-c2898247a18a",
            "actions": [
                {
                    "name": "Shoot",
                    "type": "Button",
                    "id": "a551d4ca-0f58-4fb0-80d1-82f39a0fc2d3",
                    "expectedControlType": "Button",
                    "processors": "",
                    "interactions": ""
                },
                {
                    "name": "Turn",
                    "type": "Value",
                    "id": "533ae72c-e2f0-4f13-a2ef-7577aabec01a",
                    "expectedControlType": "Vector2",
                    "processors": "",
                    "interactions": ""
                },
                {
                    "name": "StrifeRight",
                    "type": "Button",
                    "id": "32bfea78-20c6-4df0-8060-91b7757ba2c6",
                    "expectedControlType": "Button",
                    "processors": "",
                    "interactions": ""
                },
                {
                    "name": "StrifeLeft",
                    "type": "Button",
                    "id": "88262102-a936-4346-a9e4-92feb615e0ba",
                    "expectedControlType": "Button",
                    "processors": "",
                    "interactions": ""
                }
            ],
            "bindings": [
                {
                    "name": "",
                    "id": "d8db2db3-ccd5-4bc6-bb50-c13f59df6830",
                    "path": "<Gamepad>/rightShoulder",
                    "interactions": "",
                    "processors": "",
                    "groups": "",
                    "action": "Shoot",
                    "isComposite": false,
                    "isPartOfComposite": false
                },
                {
                    "name": "2D Vector",
                    "id": "15f7104f-e6cc-4613-9c76-6cc1437ffa5a",
                    "path": "2DVector(mode=2)",
                    "interactions": "",
                    "processors": "",
                    "groups": "",
                    "action": "Turn",
                    "isComposite": true,
                    "isPartOfComposite": false
                },
                {
                    "name": "up",
                    "id": "f7f21455-2c96-4e31-8934-3804ad1a6976",
                    "path": "<Gamepad>/leftStick/up",
                    "interactions": "",
                    "processors": "",
                    "groups": "",
                    "action": "Turn",
                    "isComposite": false,
                    "isPartOfComposite": true
                },
                {
                    "name": "down",
                    "id": "58800878-e9ad-4cd1-b959-ab8b49cc78af",
                    "path": "<Gamepad>/leftStick/down",
                    "interactions": "",
                    "processors": "",
                    "groups": "",
                    "action": "Turn",
                    "isComposite": false,
                    "isPartOfComposite": true
                },
                {
                    "name": "left",
                    "id": "182fa27a-f893-4bb3-9680-9768b17aba94",
                    "path": "<Gamepad>/leftStick/left",
                    "interactions": "",
                    "processors": "",
                    "groups": "",
                    "action": "Turn",
                    "isComposite": false,
                    "isPartOfComposite": true
                },
                {
                    "name": "right",
                    "id": "f58c6338-e7e9-4f4c-8b21-82c8cc811c5f",
                    "path": "<Gamepad>/leftStick/right",
                    "interactions": "",
                    "processors": "",
                    "groups": "",
                    "action": "Turn",
                    "isComposite": false,
                    "isPartOfComposite": true
                },
                {
                    "name": "",
                    "id": "55c75ef7-ed68-4a06-b00a-0999fd68ae25",
                    "path": "<Gamepad>/rightTrigger",
                    "interactions": "",
                    "processors": "",
                    "groups": "",
                    "action": "StrifeRight",
                    "isComposite": false,
                    "isPartOfComposite": false
                },
                {
                    "name": "",
                    "id": "c5fd342d-a3c9-4f3a-b247-f2be99824f08",
                    "path": "<Gamepad>/leftTrigger",
                    "interactions": "",
                    "processors": "",
                    "groups": "",
                    "action": "StrifeLeft",
                    "isComposite": false,
                    "isPartOfComposite": false
                }
            ]
        }
    ],
    "controlSchemes": []
}